…
``` r
##  term - topic probabilities
library(tidytext)
abstract_topics <- tidy(ap_lda, matrix = "beta")
abstract_topics
```

    ## # A tibble: 3,815 x 3
    ##    topic term        beta
    ##    <int> <chr>      <dbl>
    ##  1     1 acceler 0.000163
    ##  2     2 acceler 0.000136
    ##  3     3 acceler 0.00172 
    ##  4     4 acceler 0.000119
    ##  5     5 acceler 0.000162
    ##  6     1 access  0.000163
    ##  7     2 access  0.0355  
    ##  8     3 access  0.000156
    ##  9     4 access  0.0144  
    ## 10     5 access  0.00178 
    ## # ... with 3,805 more rows
…
``` r
top_terms <- abstract_topics %>%
  group_by(topic) %>%
  top_n(5, beta) %>%
  ungroup() %>%
  arrange(topic, -beta)
top_terms
```

    ## # A tibble: 28 x 3
    ##    topic term         beta
    ##    <int> <chr>       <dbl>
    ##  1     1 sustain    0.0816
    ##  2     1 resourc    0.0409
    ##  3     1 manag      0.0311
    ##  4     1 includ     0.0230
    ##  5     1 use        0.0181
    ##  6     2 ensur      0.0396
    ##  7     2 access     0.0355
    ##  8     2 strengthen 0.0246
    ##  9     2 water      0.0233
    ## 10     2 substanti  0.0219
    ## # ... with 18 more rows
…
